Best Practices for Project Organization in the Empirical Policy and Social Science Analhysis
…
data directory divided into input and output

Breaking out of old habits are hard, but give this a try. The hope is that this will become natural as you use it.

Datasets

Building your own dataset is an intermediate/advanced-level skill. But it is the bread and butter of data analysis in the type of work Gentzkow and Shapiro do. A lot of the power in data analysis comes from merging, and setting “keys” – unique identifiers is a principle that makes this possible.

The concept of keys is also critical when discussing data because it is the database equivalent of asking what your unit of analysis is.

For example, in the gapminder dataset, what is the key?

gap_africa

## # A tibble: 624 x 7
##    country continent  year lifeExp      pop gdpPercap log_gdppercap
##      <chr>     <chr> <int>   <dbl>    <int>     <dbl>         <dbl>
##  1 Algeria    Africa  1952  43.077  9279525  2449.008      7.803438
##  2 Algeria    Africa  1957  45.685 10270856  3013.976      8.011015
##  3 Algeria    Africa  1962  48.303 11000948  2550.817      7.844169
##  4 Algeria    Africa  1967  51.407 12760499  3246.992      8.085484
##  5 Algeria    Africa  1972  54.518 14760787  4182.664      8.338704
##  6 Algeria    Africa  1977  58.014 17152804  4910.417      8.499114
##  7 Algeria    Africa  1982  61.368 20033753  5745.160      8.656113
##  8 Algeria    Africa  1987  65.799 23254956  5681.359      8.644946
##  9 Algeria    Africa  1992  67.744 26298373  5023.217      8.521826
## 10 Algeria    Africa  1997  69.152 29072015  4797.295      8.475808
## # ... with 614 more rows
…
